/* XPM */
static char * node_scalar_xpm[] = {
"20 20 97 2",
"  	c None",
". 	c #FDFDFD",
"+ 	c #FEFEFE",
"@ 	c #FBFBFB",
"# 	c #BCBCBC",
"$ 	c #949493",
"% 	c #9B9A97",
"& 	c #BEBEBE",
"* 	c #F9F9F9",
"= 	c #FEFEFD",
"- 	c #E6E6E6",
"; 	c #8D8B82",
"> 	c #D9C98C",
", 	c #F6E7A7",
"' 	c #F3E296",
") 	c #D9C888",
"! 	c #9B9271",
"~ 	c #D4D4D4",
"{ 	c #A19F98",
"] 	c #E4D496",
"^ 	c #F7EDC8",
"/ 	c #FAF5E3",
"( 	c #F9F2D1",
"_ 	c #F7E698",
": 	c #EAD88E",
"< 	c #97917A",
"[ 	c #EAEAEA",
"} 	c #F2F2F2",
"| 	c #A9A182",
"1 	c #F5E49D",
"2 	c #F9F4E3",
"3 	c #F8F3DF",
"4 	c #F6E8A6",
"5 	c #F4E390",
"6 	c #B9AA6D",
"7 	c #B6B6B4",
"8 	c #F1F1F1",
"9 	c #A8A081",
"0 	c #F5E5A0",
"a 	c #FAF6E8",
"b 	c #F9F5E7",
"c 	c #F7EFCF",
"d 	c #F5E7A7",
"e 	c #F4E395",
"f 	c #C6B570",
"g 	c #AEACA7",
"h 	c #A09C8F",
"i 	c #EDDC95",
"j 	c #FAF4E2",
"k 	c #F9F2DB",
"l 	c #F6E9B1",
"m 	c #F2E4A0",
"n 	c #EFDC8D",
"o 	c #A59860",
"p 	c #C0BFBD",
"q 	c #FCFCFB",
"r 	c #C3C3C2",
"s 	c #D4C68C",
"t 	c #F8F1DA",
"u 	c #F4E9C1",
"v 	c #F1E198",
"w 	c #E5D48C",
"x 	c #D1BF76",
"y 	c #847E66",
"z 	c #F3F3F3",
"A 	c #AAA9A6",
"B 	c #A59A70",
"C 	c #D3C89D",
"D 	c #ECDB95",
"E 	c #D9C77D",
"F 	c #9E915D",
"G 	c #76715A",
"H 	c #C9C9C9",
"I 	c #757572",
"J 	c #8C8C87",
"K 	c #ACABA5",
"L 	c #847E65",
"M 	c #887E57",
"N 	c #91908C",
"O 	c #EDEDED",
"P 	c #4B4B47",
"Q 	c #B9B9B6",
"R 	c #83837F",
"S 	c #6B6B68",
"T 	c #727271",
"U 	c #F5F5F4",
"V 	c #80807D",
"W 	c #91918D",
"X 	c #7E7E7B",
"Y 	c #4F4F4D",
"Z 	c #171714",
"` 	c #62625F",
" .	c #7F7F7E",
"..	c #40403E",
"+.	c #12120F",
"@.	c #141412",
"#.	c #383836",
"                                        ",
"                                        ",
"                                        ",
"                    . + + . +           ",
"                + @ # $ % & * .         ",
"              = - ; > , ' ) ! ~ +       ",
"              @ { ] ^ / ( _ : < [ .     ",
"              } | 1 2 2 3 4 5 6 7 =     ",
"              8 9 0 a b c d e f g +     ",
"              * h i j k l m n o p +     ",
"              q r s t u v w x y z       ",
"                A B C D E F G H +       ",
"                I J K L M N O +         ",
"                P Q R S T U             ",
"                V W X Y                 ",
"                Z `  ...                ",
"                +.@.#.                  ",
"                                        ",
"                                        ",
"                                        "};
